{
  "data": {
    "curPage": 1,
    "datas": [
      {
        "apkLink": "",
        "audit": 1,
        "author": "",
        "canEdit": false,
        "chapterId": 502,
        "chapterName": "自助",
        "collect": false,
        "courseId": 13,
        "desc": "",
        "descMd": "",
        "envelopePic": "",
        "fresh": true,
        "host": "",
        "id": 17748,
        "link": "https://juejin.cn/post/6943048240291905549",
        "niceDate": "4小时前",
        "niceShareDate": "4小时前",
        "origin": "",
        "prefix": "",
        "projectLink": "",
        "publishTime": 1616642183000,
        "realSuperChapterId": 493,
        "selfVisible": 0,
        "shareDate": 1616642183000,
        "shareUser": "jimu",
        "superChapterId": 494,
        "superChapterName": "广场Tab",
        "tags": [],
        "title": "温故而知新 | 打破Handler问到底",
        "type": 0,
        "userId": 72158,
        "visible": 1,
        "zan": 0
      },
      {
        "apkLink": "",
        "audit": 1,
        "author": "",
        "canEdit": false,
        "chapterId": 502,
        "chapterName": "自助",
        "collect": false,
        "courseId": 13,
        "desc": "",
        "descMd": "",
        "envelopePic": "",
        "fresh": true,
        "host": "",
        "id": 17747,
        "link": "https://juejin.cn/post/6941996743974191111",
        "niceDate": "6小时前",
        "niceShareDate": "6小时前",
        "origin": "",
        "prefix": "",
        "projectLink": "",
        "publishTime": 1616636034000,
        "realSuperChapterId": 493,
        "selfVisible": 0,
        "shareDate": 1616636034000,
        "shareUser": "jingbin",
        "superChapterId": 494,
        "superChapterName": "广场Tab",
        "tags": [],
        "title": "RecyclerView嵌套滑动置顶 项目应用篇",
        "type": 0,
        "userId": 1534,
        "visible": 1,
        "zan": 0
      },
      {
        "apkLink": "",
        "audit": 1,
        "author": "",
        "canEdit": false,
        "chapterId": 502,
        "chapterName": "自助",
        "collect": false,
        "courseId": 13,
        "desc": "",
        "descMd": "",
        "envelopePic": "",
        "fresh": true,
        "host": "",
        "id": 17746,
        "link": "https://blog.csdn.net/z979451341/article/details/115175946",
        "niceDate": "6小时前",
        "niceShareDate": "6小时前",
        "origin": "",
        "prefix": "",
        "projectLink": "",
        "publishTime": 1616634650000,
        "realSuperChapterId": 493,
        "selfVisible": 0,
        "shareDate": 1616634650000,
        "shareUser": "https://jianpanwuzhe.blog.csdn.net/",
        "superChapterId": 494,
        "superChapterName": "广场Tab",
        "tags": [],
        "title": "CountDownTimer源码解析",
        "type": 0,
        "userId": 14717,
        "visible": 1,
        "zan": 0
      },
      {
        "apkLink": "",
        "audit": 1,
        "author": "",
        "canEdit": false,
        "chapterId": 55,
        "chapterName": "新的API",
        "collect": false,
        "courseId": 13,
        "desc": "",
        "descMd": "",
        "envelopePic": "",
        "fresh": true,
        "host": "",
        "id": 17742,
        "link": "https://juejin.cn/post/6943037393893064734",
        "niceDate": "15小时前",
        "niceShareDate": "15小时前",
        "origin": "",
        "prefix": "",
        "projectLink": "",
        "publishTime": 1616602571000,
        "realSuperChapterId": 39,
        "selfVisible": 0,
        "shareDate": 1616602305000,
        "shareUser": "鸿洋",
        "superChapterId": 55,
        "superChapterName": "5.+高新技术",
        "tags": [],
        "title": "线程切换哪家强？RxJava与Flow的操作符对比",
        "type": 0,
        "userId": 2,
        "visible": 1,
        "zan": 0
      },
      {
        "apkLink": "",
        "audit": 1,
        "author": "",
        "canEdit": false,
        "chapterId": 313,
        "chapterName": "字节码",
        "collect": false,
        "courseId": 13,
        "desc": "",
        "descMd": "",
        "envelopePic": "",
        "fresh": true,
        "host": "",
        "id": 17744,
        "link": "https://www.jianshu.com/p/fba2eec47976",
        "niceDate": "15小时前",
        "niceShareDate": "15小时前",
        "origin": "",
        "prefix": "",
        "projectLink": "",
        "publishTime": 1616602557000,
        "realSuperChapterId": 244,
        "selfVisible": 0,
        "shareDate": 1616602516000,
        "shareUser": "鸿洋",
        "superChapterId": 245,
        "superChapterName": "Java深入",
        "tags": [],
        "title": "JavaPoet - 优雅地生成代码",
        "type": 0,
        "userId": 2,
        "visible": 1,
        "zan": 0
      },
      {
        "apkLink": "",
        "audit": 1,
        "author": "",
        "canEdit": false,
        "chapterId": 98,
        "chapterName": "WebView",
        "collect": false,
        "courseId": 13,
        "desc": "",
        "descMd": "",
        "envelopePic": "",
        "fresh": true,
        "host": "",
        "id": 17743,
        "link": "https://www.jianshu.com/p/48693ecd5d70",
        "niceDate": "15小时前",
        "niceShareDate": "15小时前",
        "origin": "",
        "prefix": "",
        "projectLink": "",
        "publishTime": 1616602544000,
        "realSuperChapterId": 34,
        "selfVisible": 0,
        "shareDate": 1616602414000,
        "shareUser": "鸿洋",
        "superChapterId": 98,
        "superChapterName": "网络访问",
        "tags": [],
        "title": "有效解决WebView多进程崩溃",
        "type": 0,
        "userId": 2,
        "visible": 1,
        "zan": 0
      },
      {
        "apkLink": "",
        "audit": 1,
        "author": "",
        "canEdit": false,
        "chapterId": 502,
        "chapterName": "自助",
        "collect": false,
        "courseId": 13,
        "desc": "",
        "descMd": "",
        "envelopePic": "",
        "fresh": true,
        "host": "",
        "id": 17734,
        "link": "https://juejin.cn/post/6942859907586588685",
        "niceDate": "1天前",
        "niceShareDate": "1天前",
        "origin": "",
        "prefix": "",
        "projectLink": "",
        "publishTime": 1616553909000,
        "realSuperChapterId": 493,
        "selfVisible": 0,
        "shareDate": 1616553909000,
        "shareUser": "逮虾户",
        "superChapterId": 494,
        "superChapterName": "广场Tab",
        "tags": [],
        "title": "还在用build.gradle吗？试试build.gradle.kts吧",
        "type": 0,
        "userId": 63284,
        "visible": 1,
        "zan": 0
      },
      {
        "apkLink": "",
        "audit": 1,
        "author": "张鸿洋",
        "canEdit": false,
        "chapterId": 543,
        "chapterName": "Android技术周报",
        "collect": false,
        "courseId": 13,
        "desc": "",
        "descMd": "",
        "envelopePic": "",
        "fresh": false,
        "host": "",
        "id": 17730,
        "link": "/blog/show/2969",
        "niceDate": "1天前",
        "niceShareDate": "1天前",
        "origin": "",
        "prefix": "",
        "projectLink": "",
        "publishTime": 1616515200000,
        "realSuperChapterId": 542,
        "selfVisible": 0,
        "shareDate": 1616515800000,
        "shareUser": "",
        "superChapterId": 543,
        "superChapterName": "技术周报",
        "tags": [],
        "title": "Android 技术周刊 （2021-03-17 ~ 2021-03-24）",
        "type": 0,
        "userId": -1,
        "visible": 1,
        "zan": 0
      },
      {
        "apkLink": "",
        "audit": 1,
        "author": "鸿洋",
        "canEdit": false,
        "chapterId": 408,
        "chapterName": "鸿洋",
        "collect": false,
        "courseId": 13,
        "desc": "",
        "descMd": "",
        "envelopePic": "",
        "fresh": false,
        "host": "",
        "id": 17740,
        "link": "https://mp.weixin.qq.com/s/t1VBFZSOrzfxjxbfELF2Ng",
        "niceDate": "1天前",
        "niceShareDate": "16小时前",
        "origin": "",
        "prefix": "",
        "projectLink": "",
        "publishTime": 1616515200000,
        "realSuperChapterId": 407,
        "selfVisible": 0,
        "shareDate": 1616598285000,
        "shareUser": "",
        "superChapterId": 408,
        "superChapterName": "公众号",
        "tags": [
          {
            "name": "公众号",
            "url": "/wxarticle/list/408/1"
          }
        ],
        "title": "Android 架构探索，MVVM 原来如此简单！",
        "type": 0,
        "userId": -1,
        "visible": 1,
        "zan": 0
      },
      {
        "apkLink": "",
        "audit": 1,
        "author": "郭霖",
        "canEdit": false,
        "chapterId": 409,
        "chapterName": "郭霖",
        "collect": false,
        "courseId": 13,
        "desc": "",
        "descMd": "",
        "envelopePic": "",
        "fresh": false,
        "host": "",
        "id": 17741,
        "link": "https://mp.weixin.qq.com/s/DNiaQEcE7LOhhxfLu7gycg",
        "niceDate": "1天前",
        "niceShareDate": "16小时前",
        "origin": "",
        "prefix": "",
        "projectLink": "",
        "publishTime": 1616515200000,
        "realSuperChapterId": 407,
        "selfVisible": 0,
        "shareDate": 1616598299000,
        "shareUser": "",
        "superChapterId": 408,
        "superChapterName": "公众号",
        "tags": [
          {
            "name": "公众号",
            "url": "/wxarticle/list/409/1"
          }
        ],
        "title": "Android轻量级存储方案的前世今生",
        "type": 0,
        "userId": -1,
        "visible": 1,
        "zan": 0
      },
      {
        "apkLink": "",
        "audit": 1,
        "author": "",
        "canEdit": false,
        "chapterId": 98,
        "chapterName": "WebView",
        "collect": false,
        "courseId": 13,
        "desc": "",
        "descMd": "",
        "envelopePic": "",
        "fresh": false,
        "host": "",
        "id": 17721,
        "link": "https://juejin.cn/post/6942404092819931166",
        "niceDate": "1天前",
        "niceShareDate": "2天前",
        "origin": "",
        "prefix": "",
        "projectLink": "",
        "publishTime": 1616514340000,
        "realSuperChapterId": 34,
        "selfVisible": 0,
        "shareDate": 1616469811000,
        "shareUser": "程序员徐公",
        "superChapterId": 98,
        "superChapterName": "网络访问",
        "tags": [],
        "title": "Android webView 的一个坑，字体怎么突然变小了",
        "type": 0,
        "userId": 5339,
        "visible": 1,
        "zan": 0
      },
      {
        "apkLink": "",
        "audit": 1,
        "author": "",
        "canEdit": false,
        "chapterId": 76,
        "chapterName": "项目架构",
        "collect": false,
        "courseId": 13,
        "desc": "",
        "descMd": "",
        "envelopePic": "",
        "fresh": false,
        "host": "",
        "id": 17724,
        "link": "https://juejin.cn/post/6942464122273398820",
        "niceDate": "1天前",
        "niceShareDate": "1天前",
        "origin": "",
        "prefix": "",
        "projectLink": "",
        "publishTime": 1616514327000,
        "realSuperChapterId": 53,
        "selfVisible": 0,
        "shareDate": 1616487136000,
        "shareUser": "18616720137",
        "superChapterId": 76,
        "superChapterName": "热门专题",
        "tags": [],
        "title": "关于Android 架构，你是否还在生搬硬套？",
        "type": 0,
        "userId": 36628,
        "visible": 1,
        "zan": 0
      },
      {
        "apkLink": "",
        "audit": 1,
        "author": "",
        "canEdit": false,
        "chapterId": 510,
        "chapterName": "大厂分享",
        "collect": false,
        "courseId": 13,
        "desc": "",
        "descMd": "",
        "envelopePic": "",
        "fresh": false,
        "host": "",
        "id": 17729,
        "link": "https://juejin.cn/post/6942665216781975582",
        "niceDate": "1天前",
        "niceShareDate": "1天前",
        "origin": "",
        "prefix": "",
        "projectLink": "",
        "publishTime": 1616514295000,
        "realSuperChapterId": 509,
        "selfVisible": 0,
        "shareDate": 1616514228000,
        "shareUser": "鸿洋",
        "superChapterId": 510,
        "superChapterName": "大厂对外分享",
        "tags": [],
        "title": "今日头条 ANR 优化实践系列 - 监控工具与分析思路",
        "type": 0,
        "userId": 2,
        "visible": 1,
        "zan": 0
      },
      {
        "apkLink": "",
        "audit": 1,
        "author": "",
        "canEdit": false,
        "chapterId": 502,
        "chapterName": "自助",
        "collect": false,
        "courseId": 13,
        "desc": "",
        "descMd": "",
        "envelopePic": "",
        "fresh": false,
        "host": "",
        "id": 17723,
        "link": "https://www.jianshu.com/p/32b7241124a2",
        "niceDate": "2天前",
        "niceShareDate": "2天前",
        "origin": "",
        "prefix": "",
        "projectLink": "",
        "publishTime": 1616485345000,
        "realSuperChapterId": 493,
        "selfVisible": 0,
        "shareDate": 1616485345000,
        "shareUser": "维他命B12",
        "superChapterId": 494,
        "superChapterName": "广场Tab",
        "tags": [],
        "title": "Android 后台运行白名单，优雅实现保活",
        "type": 0,
        "userId": 69620,
        "visible": 1,
        "zan": 0
      },
      {
        "apkLink": "",
        "audit": 1,
        "author": "",
        "canEdit": false,
        "chapterId": 97,
        "chapterName": "音视频",
        "collect": false,
        "courseId": 13,
        "desc": "",
        "descMd": "",
        "envelopePic": "",
        "fresh": false,
        "host": "",
        "id": 17716,
        "link": "https://juejin.cn/post/6942099357361504270",
        "niceDate": "2天前",
        "niceShareDate": "2天前",
        "origin": "",
        "prefix": "",
        "projectLink": "",
        "publishTime": 1616430724000,
        "realSuperChapterId": 38,
        "selfVisible": 0,
        "shareDate": 1616430451000,
        "shareUser": "鸿洋",
        "superChapterId": 97,
        "superChapterName": "多媒体技术",
        "tags": [],
        "title": "FFmpeg 开发(12)：Android FFmpeg 实现带滤镜的微信小视频录制功能",
        "type": 0,
        "userId": 2,
        "visible": 1,
        "zan": 0
      },
      {
        "apkLink": "",
        "audit": 1,
        "author": "",
        "canEdit": false,
        "chapterId": 506,
        "chapterName": "compose",
        "collect": false,
        "courseId": 13,
        "desc": "",
        "descMd": "",
        "envelopePic": "",
        "fresh": false,
        "host": "",
        "id": 17717,
        "link": "https://juejin.cn/post/6942386785452294181",
        "niceDate": "2天前",
        "niceShareDate": "2天前",
        "origin": "",
        "prefix": "",
        "projectLink": "",
        "publishTime": 1616430709000,
        "realSuperChapterId": 422,
        "selfVisible": 0,
        "shareDate": 1616430468000,
        "shareUser": "鸿洋",
        "superChapterId": 423,
        "superChapterName": "Jetpack",
        "tags": [],
        "title": "Compose Android 开发终极挑战赛: 天气应用",
        "type": 0,
        "userId": 2,
        "visible": 1,
        "zan": 0
      },
      {
        "apkLink": "",
        "audit": 1,
        "author": "",
        "canEdit": false,
        "chapterId": 100,
        "chapterName": "RecyclerView",
        "collect": false,
        "courseId": 13,
        "desc": "",
        "descMd": "",
        "envelopePic": "",
        "fresh": false,
        "host": "",
        "id": 17718,
        "link": "https://juejin.cn/post/6942276625090215943",
        "niceDate": "2天前",
        "niceShareDate": "2天前",
        "origin": "",
        "prefix": "",
        "projectLink": "",
        "publishTime": 1616430698000,
        "realSuperChapterId": 39,
        "selfVisible": 0,
        "shareDate": 1616430474000,
        "shareUser": "鸿洋",
        "superChapterId": 55,
        "superChapterName": "5.+高新技术",
        "tags": [],
        "title": "RecyclerView 性能优化 | 把加载表项耗时减半 (下)",
        "type": 0,
        "userId": 2,
        "visible": 1,
        "zan": 0
      },
      {
        "apkLink": "",
        "audit": 1,
        "author": "",
        "canEdit": false,
        "chapterId": 169,
        "chapterName": "gradle",
        "collect": false,
        "courseId": 13,
        "desc": "",
        "descMd": "",
        "envelopePic": "",
        "fresh": false,
        "host": "",
        "id": 17719,
        "link": "https://www.jianshu.com/p/8429f19d6acd",
        "niceDate": "2天前",
        "niceShareDate": "2天前",
        "origin": "",
        "prefix": "",
        "projectLink": "",
        "publishTime": 1616430690000,
        "realSuperChapterId": 150,
        "selfVisible": 0,
        "shareDate": 1616430650000,
        "shareUser": "鸿洋",
        "superChapterId": 60,
        "superChapterName": "开发环境",
        "tags": [],
        "title": "打包APK缺失Java资源: ZIP的65535问题",
        "type": 0,
        "userId": 2,
        "visible": 1,
        "zan": 0
      },
      {
        "apkLink": "",
        "audit": 1,
        "author": "",
        "canEdit": false,
        "chapterId": 26,
        "chapterName": "基础UI控件",
        "collect": false,
        "courseId": 13,
        "desc": "",
        "descMd": "",
        "envelopePic": "",
        "fresh": false,
        "host": "",
        "id": 17720,
        "link": "https://www.jianshu.com/p/04ed8d18c335",
        "niceDate": "2天前",
        "niceShareDate": "2天前",
        "origin": "",
        "prefix": "",
        "projectLink": "",
        "publishTime": 1616430681000,
        "realSuperChapterId": 25,
        "selfVisible": 0,
        "shareDate": 1616430668000,
        "shareUser": "鸿洋",
        "superChapterId": 26,
        "superChapterName": "常用控件",
        "tags": [],
        "title": "Android优雅处理重复点击",
        "type": 0,
        "userId": 2,
        "visible": 1,
        "zan": 0
      }
    ],
    "offset": 0,
    "over": false,
    "pageCount": 512,
    "size": 20,
    "total": 10238
  },
  "errorCode": 0,
  "errorMsg": ""
}
