{
  "data": {
    "curPage": 1,
    "datas": [
      {
        "apkLink": "",
        "audit": 1,
        "author": "郭霖",
        "canEdit": false,
        "chapterId": 409,
        "chapterName": "郭霖",
        "collect": false,
        "courseId": 13,
        "desc": "",
        "descMd": "",
        "envelopePic": "",
        "fresh": false,
        "host": "",
        "id": 17786,
        "link": "https://mp.weixin.qq.com/s/-TmdiinM0b9n5NpMV_enUg",
        "niceDate": "2021-03-26 00:00",
        "niceShareDate": "2021-03-28 21:23",
        "origin": "",
        "prefix": "",
        "projectLink": "",
        "publishTime": 1616688000000,
        "realSuperChapterId": 407,
        "selfVisible": 0,
        "shareDate": 1616937816000,
        "shareUser": "",
        "superChapterId": 408,
        "superChapterName": "公众号",
        "tags": [
          {
            "name": "公众号",
            "url": "/wxarticle/list/409/1"
          }
        ],
        "title": "跟着官方文档学习<em class='highlight'>Kotlin</em><em class='highlight'>协程</em>，官方文档还是香啊！",
        "type": 0,
        "userId": -1,
        "visible": 1,
        "zan": 0
      },
      {
        "apkLink": "",
        "audit": 1,
        "author": "郭霖",
        "canEdit": false,
        "chapterId": 409,
        "chapterName": "郭霖",
        "collect": false,
        "courseId": 13,
        "desc": "",
        "descMd": "",
        "envelopePic": "",
        "fresh": false,
        "host": "",
        "id": 17670,
        "link": "https://mp.weixin.qq.com/s/UETNzqcHgQ4U_HTycdiAMw",
        "niceDate": "2021-03-17 00:00",
        "niceShareDate": "2021-03-17 23:14",
        "origin": "",
        "prefix": "",
        "projectLink": "",
        "publishTime": 1615910400000,
        "realSuperChapterId": 407,
        "selfVisible": 0,
        "shareDate": 1615994071000,
        "shareUser": "",
        "superChapterId": 408,
        "superChapterName": "公众号",
        "tags": [
          {
            "name": "公众号",
            "url": "/wxarticle/list/409/1"
          }
        ],
        "title": "揭秘<em class='highlight'>Kotlin</em><em class='highlight'>协程</em>中的CoroutineContext",
        "type": 0,
        "userId": -1,
        "visible": 1,
        "zan": 0
      },
      {
        "apkLink": "",
        "audit": 1,
        "author": "",
        "canEdit": false,
        "chapterId": 494,
        "chapterName": "广场",
        "collect": false,
        "courseId": 13,
        "desc": "",
        "descMd": "",
        "envelopePic": "",
        "fresh": false,
        "host": "",
        "id": 17362,
        "link": "https://juejin.cn/post/6930973078529720334",
        "niceDate": "2021-02-22 08:40",
        "niceShareDate": "2021-02-22 08:40",
        "origin": "",
        "prefix": "",
        "projectLink": "",
        "publishTime": 1613954428000,
        "realSuperChapterId": 493,
        "selfVisible": 0,
        "shareDate": 1613954428000,
        "shareUser": "goweii",
        "superChapterId": 494,
        "superChapterName": "广场Tab",
        "tags": [],
        "title": "安卓-<em class='highlight'>kotlin</em><em class='highlight'>协程</em>的异常处理机制分析",
        "type": 0,
        "userId": 20382,
        "visible": 0,
        "zan": 0
      },
      {
        "apkLink": "",
        "audit": 1,
        "author": "",
        "canEdit": false,
        "chapterId": 494,
        "chapterName": "广场",
        "collect": false,
        "courseId": 13,
        "desc": "",
        "descMd": "",
        "envelopePic": "",
        "fresh": false,
        "host": "",
        "id": 17345,
        "link": "https://juejin.cn/post/6931288254868094983",
        "niceDate": "2021-02-21 11:28",
        "niceShareDate": "2021-02-21 11:28",
        "origin": "",
        "prefix": "",
        "projectLink": "",
        "publishTime": 1613878088000,
        "realSuperChapterId": 493,
        "selfVisible": 0,
        "shareDate": 1613878088000,
        "shareUser": "goweii",
        "superChapterId": 494,
        "superChapterName": "广场Tab",
        "tags": [],
        "title": "【疯狂Android之<em class='highlight'>Kotlin</em>】 简单理解与使用<em class='highlight'>Kotlin</em>中的<em class='highlight'>协程</em>",
        "type": 0,
        "userId": 20382,
        "visible": 0,
        "zan": 0
      },
      {
        "apkLink": "",
        "audit": 1,
        "author": "",
        "canEdit": false,
        "chapterId": 502,
        "chapterName": "自助",
        "collect": false,
        "courseId": 13,
        "desc": "",
        "descMd": "",
        "envelopePic": "",
        "fresh": false,
        "host": "",
        "id": 17228,
        "link": "https://juejin.cn/post/6926695962354122765",
        "niceDate": "2021-02-08 09:35",
        "niceShareDate": "2021-02-08 09:34",
        "origin": "",
        "prefix": "",
        "projectLink": "",
        "publishTime": 1612748110000,
        "realSuperChapterId": 493,
        "selfVisible": 0,
        "shareDate": 1612748082000,
        "shareUser": "rain9155",
        "superChapterId": 494,
        "superChapterName": "广场Tab",
        "tags": [],
        "title": "揭秘<em class='highlight'>kotlin</em><em class='highlight'>协程</em>中的CoroutineContext",
        "type": 0,
        "userId": 12884,
        "visible": 1,
        "zan": 0
      },
      {
        "apkLink": "",
        "audit": 1,
        "author": "",
        "canEdit": false,
        "chapterId": 494,
        "chapterName": "广场",
        "collect": false,
        "courseId": 13,
        "desc": "",
        "descMd": "",
        "envelopePic": "",
        "fresh": false,
        "host": "",
        "id": 17126,
        "link": "https://mp.weixin.qq.com/s/zQ7fFKp9CCW6h3TVVE6X5g",
        "niceDate": "2021-01-31 16:35",
        "niceShareDate": "2021-01-31 16:35",
        "origin": "",
        "prefix": "",
        "projectLink": "",
        "publishTime": 1612082106000,
        "realSuperChapterId": 493,
        "selfVisible": 0,
        "shareDate": 1612082106000,
        "shareUser": "onlyloveyd",
        "superChapterId": 494,
        "superChapterName": "广场Tab",
        "tags": [],
        "title": "<em class='highlight'>Kotlin</em><em class='highlight'>协程</em>场景化学习",
        "type": 0,
        "userId": 897,
        "visible": 0,
        "zan": 0
      },
      {
        "apkLink": "",
        "audit": 1,
        "author": "",
        "canEdit": false,
        "chapterId": 494,
        "chapterName": "广场",
        "collect": false,
        "courseId": 13,
        "desc": "",
        "descMd": "",
        "envelopePic": "",
        "fresh": false,
        "host": "",
        "id": 16867,
        "link": "https://www.jianshu.com/p/bb63f889200e",
        "niceDate": "2021-01-12 19:55",
        "niceShareDate": "2021-01-12 19:55",
        "origin": "",
        "prefix": "",
        "projectLink": "",
        "publishTime": 1610452509000,
        "realSuperChapterId": 493,
        "selfVisible": 0,
        "shareDate": 1610452509000,
        "shareUser": "深红骑士",
        "superChapterId": 494,
        "superChapterName": "广场Tab",
        "tags": [],
        "title": "<em class='highlight'>Kotlin</em> <em class='highlight'>协程</em>中，关于 runBlocking， launch ，withContext ，async，doAsync 之间的简单区别",
        "type": 0,
        "userId": 29303,
        "visible": 0,
        "zan": 0
      },
      {
        "apkLink": "",
        "audit": 1,
        "author": "",
        "canEdit": false,
        "chapterId": 424,
        "chapterName": "协程",
        "collect": false,
        "courseId": 13,
        "desc": "",
        "descMd": "",
        "envelopePic": "",
        "fresh": false,
        "host": "",
        "id": 16800,
        "link": "https://juejin.cn/post/6914802148614242312",
        "niceDate": "2021-01-07 23:59",
        "niceShareDate": "2021-01-07 23:54",
        "origin": "",
        "prefix": "",
        "projectLink": "",
        "publishTime": 1610035179000,
        "realSuperChapterId": 231,
        "selfVisible": 0,
        "shareDate": 1610034856000,
        "shareUser": "鸿洋",
        "superChapterId": 232,
        "superChapterName": "Kotlin",
        "tags": [],
        "title": "抽丝剥茧<em class='highlight'>Kotlin</em> - <em class='highlight'>协程</em>中绕不过的Flow",
        "type": 0,
        "userId": 2,
        "visible": 1,
        "zan": 0
      },
      {
        "apkLink": "",
        "audit": 1,
        "author": "",
        "canEdit": false,
        "chapterId": 502,
        "chapterName": "自助",
        "collect": false,
        "courseId": 13,
        "desc": "",
        "descMd": "",
        "envelopePic": "",
        "fresh": false,
        "host": "",
        "id": 16723,
        "link": "https://juejin.cn/post/6913565956946001934",
        "niceDate": "2021-01-04 00:22",
        "niceShareDate": "2021-01-04 00:22",
        "origin": "",
        "prefix": "",
        "projectLink": "",
        "publishTime": 1609690940000,
        "realSuperChapterId": 493,
        "selfVisible": 0,
        "shareDate": 1609690940000,
        "shareUser": "RicardoMJiang",
        "superChapterId": 494,
        "superChapterName": "广场Tab",
        "tags": [],
        "title": "【手写<em class='highlight'>协程</em>】 实现<em class='highlight'>kotlin</em>版yield与resume",
        "type": 0,
        "userId": 13971,
        "visible": 1,
        "zan": 0
      },
      {
        "apkLink": "",
        "audit": 1,
        "author": "RunFeifei",
        "canEdit": false,
        "chapterId": 539,
        "chapterName": "未分类",
        "collect": false,
        "courseId": 13,
        "desc": "DSL方式的请求，自由处理各种start、response、error回调,或者交给BaseViewModel统一处理\r\n回调方式请求，自由处理各种start、response、error回调,或者交给BaseViewModel统一处理\r\nLiveData方式请求,请求直接返回LiveData\r\nDSL方式灵活配置OkHttpClient/Retrofit",
        "descMd": "",
        "envelopePic": "https://www.wanandroid.com/resources/image/pc/default_project_img.jpg",
        "fresh": false,
        "host": "",
        "id": 16683,
        "link": "https://www.wanandroid.com/blog/show/2871",
        "niceDate": "2020-12-30 23:44",
        "niceShareDate": "2020-12-30 23:44",
        "origin": "",
        "prefix": "",
        "projectLink": "https://github.com/RunFeifei/Run",
        "publishTime": 1609343066000,
        "realSuperChapterId": 293,
        "selfVisible": 0,
        "shareDate": 1609343066000,
        "shareUser": "",
        "superChapterId": 294,
        "superChapterName": "开源项目主Tab",
        "tags": [
          {
            "name": "项目",
            "url": "/project/list/1?cid=539"
          }
        ],
        "title": "利用<em class='highlight'>Kotlin</em>和<em class='highlight'>协程</em>实现DSL样式的网络请求",
        "type": 0,
        "userId": -1,
        "visible": 1,
        "zan": 0
      },
      {
        "apkLink": "",
        "audit": 1,
        "author": "",
        "canEdit": false,
        "chapterId": 494,
        "chapterName": "广场",
        "collect": false,
        "courseId": 13,
        "desc": "",
        "descMd": "",
        "envelopePic": "",
        "fresh": false,
        "host": "",
        "id": 16663,
        "link": "https://mp.weixin.qq.com/s/KzbRU4nHZSE98rAJG0i7Bw",
        "niceDate": "2020-12-29 08:36",
        "niceShareDate": "2020-12-29 08:36",
        "origin": "",
        "prefix": "",
        "projectLink": "",
        "publishTime": 1609202164000,
        "realSuperChapterId": 493,
        "selfVisible": 0,
        "shareDate": 1609202164000,
        "shareUser": "goweii",
        "superChapterId": 494,
        "superChapterName": "广场Tab",
        "tags": [],
        "title": "一篇小短文迅速了解<em class='highlight'>Kotlin</em>中<em class='highlight'>协程</em>的实现原理",
        "type": 0,
        "userId": 20382,
        "visible": 0,
        "zan": 0
      },
      {
        "apkLink": "",
        "audit": 1,
        "author": "baiyuliang",
        "canEdit": false,
        "chapterId": 294,
        "chapterName": "完整项目",
        "collect": false,
        "courseId": 13,
        "desc": "Kotlin+MVVM+Retrofit+协程+ViewBinding+EventBus，准备入门kotlin和mvvm的完全可以以本项目为基础，强大、简单、易用！\r\n",
        "descMd": "",
        "envelopePic": "https://www.wanandroid.com/resources/image/pc/default_project_img.jpg",
        "fresh": false,
        "host": "",
        "id": 16606,
        "link": "https://www.wanandroid.com/blog/show/2857",
        "niceDate": "2020-12-25 00:18",
        "niceShareDate": "2020-12-25 00:18",
        "origin": "",
        "prefix": "",
        "projectLink": "https://github.com/baiyuliang/MVVM",
        "publishTime": 1608826723000,
        "realSuperChapterId": 293,
        "selfVisible": 0,
        "shareDate": 1608826723000,
        "shareUser": "",
        "superChapterId": 294,
        "superChapterName": "开源项目主Tab",
        "tags": [
          {
            "name": "项目",
            "url": "/project/list/1?cid=294"
          }
        ],
        "title": "<em class='highlight'>Kotlin</em>+MVVM+Retrofit+<em class='highlight'>协程</em>+ViewBinding+EventBus",
        "type": 0,
        "userId": -1,
        "visible": 1,
        "zan": 0
      },
      {
        "apkLink": "",
        "audit": 1,
        "author": "",
        "canEdit": false,
        "chapterId": 494,
        "chapterName": "广场",
        "collect": false,
        "courseId": 13,
        "desc": "",
        "descMd": "",
        "envelopePic": "",
        "fresh": false,
        "host": "",
        "id": 16587,
        "link": "https://juejin.cn/post/6909276222895685640",
        "niceDate": "2020-12-24 08:37",
        "niceShareDate": "2020-12-24 08:37",
        "origin": "",
        "prefix": "",
        "projectLink": "",
        "publishTime": 1608770253000,
        "realSuperChapterId": 493,
        "selfVisible": 0,
        "shareDate": 1608770253000,
        "shareUser": "goweii",
        "superChapterId": 494,
        "superChapterName": "广场Tab",
        "tags": [],
        "title": "<em class='highlight'>Kotlin</em><em class='highlight'>协程</em>系列三-<em class='highlight'>协程</em>取消与异常处理流程",
        "type": 0,
        "userId": 20382,
        "visible": 0,
        "zan": 0
      },
      {
        "apkLink": "",
        "audit": 1,
        "author": "",
        "canEdit": false,
        "chapterId": 494,
        "chapterName": "广场",
        "collect": false,
        "courseId": 13,
        "desc": "",
        "descMd": "",
        "envelopePic": "",
        "fresh": false,
        "host": "",
        "id": 16565,
        "link": "https://juejin.cn/post/6844904037586829320#heading-23",
        "niceDate": "2020-12-22 20:38",
        "niceShareDate": "2020-12-22 20:38",
        "origin": "",
        "prefix": "",
        "projectLink": "",
        "publishTime": 1608640702000,
        "realSuperChapterId": 493,
        "selfVisible": 0,
        "shareDate": 1608640702000,
        "shareUser": "深红骑士",
        "superChapterId": 494,
        "superChapterName": "广场Tab",
        "tags": [],
        "title": "更全面的<em class='highlight'>Kotlin</em><em class='highlight'>协程</em>: Coroutine/Channel/Flow 以及实际应用",
        "type": 0,
        "userId": 29303,
        "visible": 0,
        "zan": 0
      },
      {
        "apkLink": "",
        "audit": 1,
        "author": "AManCallJiang",
        "canEdit": false,
        "chapterId": 294,
        "chapterName": "完整项目",
        "collect": false,
        "courseId": 13,
        "desc": "AwesomeDownloader 是基于OkHttp和kotlin协程实现的下载器，它能在后台进行下载任务并轻松地让您在下载文件时获取进度，它能随时停止、恢复、取消任务，还可以方便地查询下载的任务和已完成的任务的信息。",
        "descMd": "",
        "envelopePic": "https://wanandroid.com/blogimgs/7f87a694-bbe9-4582-b3c8-fd6a612c920a.png",
        "fresh": false,
        "host": "",
        "id": 16375,
        "link": "https://www.wanandroid.com/blog/show/2818",
        "niceDate": "2020-12-09 00:52",
        "niceShareDate": "2020-12-09 00:52",
        "origin": "",
        "prefix": "",
        "projectLink": "https://github.com/AManCallJiang/AwesomeDownloader-Android",
        "publishTime": 1607446356000,
        "realSuperChapterId": 293,
        "selfVisible": 0,
        "shareDate": 1607446356000,
        "shareUser": "",
        "superChapterId": 294,
        "superChapterName": "开源项目主Tab",
        "tags": [
          {
            "name": "项目",
            "url": "/project/list/1?cid=294"
          }
        ],
        "title": "AwesomeDownloader 基于OkHttp和<em class='highlight'>kotlin</em><em class='highlight'>协程</em>实现的下载器",
        "type": 0,
        "userId": -1,
        "visible": 1,
        "zan": 0
      },
      {
        "apkLink": "",
        "audit": 1,
        "author": "",
        "canEdit": false,
        "chapterId": 424,
        "chapterName": "协程",
        "collect": false,
        "courseId": 13,
        "desc": "",
        "descMd": "",
        "envelopePic": "",
        "fresh": false,
        "host": "",
        "id": 16262,
        "link": "https://juejin.cn/post/6900450661465489421",
        "niceDate": "2020-11-30 21:21",
        "niceShareDate": "2020-11-30 08:42",
        "origin": "",
        "prefix": "",
        "projectLink": "",
        "publishTime": 1606742485000,
        "realSuperChapterId": 231,
        "selfVisible": 0,
        "shareDate": 1606696966000,
        "shareUser": "goweii",
        "superChapterId": 232,
        "superChapterName": "Kotlin",
        "tags": [],
        "title": "<em class='highlight'>Kotlin</em> <em class='highlight'>协程</em>使用手册 &mdash;&mdash; Job(上)",
        "type": 0,
        "userId": 20382,
        "visible": 1,
        "zan": 0
      },
      {
        "apkLink": "",
        "audit": 1,
        "author": "",
        "canEdit": false,
        "chapterId": 502,
        "chapterName": "自助",
        "collect": false,
        "courseId": 13,
        "desc": "",
        "descMd": "",
        "envelopePic": "",
        "fresh": false,
        "host": "",
        "id": 16261,
        "link": "https://juejin.im/post/6900705686145990669",
        "niceDate": "2020-11-30 08:38",
        "niceShareDate": "2020-11-30 08:38",
        "origin": "",
        "prefix": "",
        "projectLink": "",
        "publishTime": 1606696703000,
        "realSuperChapterId": 493,
        "selfVisible": 0,
        "shareDate": 1606696703000,
        "shareUser": "RicardoMJiang",
        "superChapterId": 494,
        "superChapterName": "广场Tab",
        "tags": [],
        "title": "【手写<em class='highlight'>协程</em>】怎么利用<em class='highlight'>kotlin</em>实现python<em class='highlight'>协程</em>？",
        "type": 0,
        "userId": 13971,
        "visible": 1,
        "zan": 0
      },
      {
        "apkLink": "",
        "audit": 1,
        "author": "fmtjava",
        "canEdit": false,
        "chapterId": 539,
        "chapterName": "未分类",
        "collect": false,
        "courseId": 13,
        "desc": "一款基于Kotlin + Jetpack核心组件 + 协程 + 组件化实现的精美仿开眼视频App",
        "descMd": "",
        "envelopePic": "https://www.wanandroid.com/blogimgs/73148de0-6e74-4c7b-90ef-2b924c518802.png",
        "fresh": false,
        "host": "",
        "id": 16248,
        "link": "https://www.wanandroid.com/blog/show/2801",
        "niceDate": "2020-11-28 13:25",
        "niceShareDate": "2020-11-28 13:25",
        "origin": "",
        "prefix": "",
        "projectLink": "https://github.com/fmtjava/Kotlin_Eyepetizer",
        "publishTime": 1606541148000,
        "realSuperChapterId": 293,
        "selfVisible": 0,
        "shareDate": 1606541148000,
        "shareUser": "",
        "superChapterId": 294,
        "superChapterName": "开源项目主Tab",
        "tags": [
          {
            "name": "项目",
            "url": "/project/list/1?cid=539"
          }
        ],
        "title": "一款基于<em class='highlight'>Kotlin</em> + Jetpack核心组件 + <em class='highlight'>协程</em> + 组件化实现的精美仿开眼视频App",
        "type": 0,
        "userId": -1,
        "visible": 1,
        "zan": 0
      }
    ],
    "offset": 0,
    "over": false,
    "pageCount": 31,
    "size": 20,
    "total": 602
  },
  "errorCode": 0,
  "errorMsg": ""
}