{
  "data": {
    "curPage": 1,
    "datas": [
      {
        "apkLink": "",
        "audit": 1,
        "author": "鸿洋",
        "canEdit": false,
        "chapterId": 408,
        "chapterName": "鸿洋",
        "collect": false,
        "courseId": 13,
        "desc": "",
        "descMd": "",
        "envelopePic": "",
        "fresh": false,
        "host": "",
        "id": 17886,
        "link": "https://mp.weixin.qq.com/s/lmpwj2vdArfbWwaQ3NUT1Q",
        "niceDate": "1天前",
        "niceShareDate": "12小时前",
        "origin": "",
        "prefix": "",
        "projectLink": "",
        "publishTime": 1617811200000,
        "realSuperChapterId": 407,
        "selfVisible": 0,
        "shareDate": 1617893161000,
        "shareUser": "",
        "superChapterId": 408,
        "superChapterName": "公众号",
        "tags": [
          {
            "name": "公众号",
            "url": "/wxarticle/list/408/1"
          }
        ],
        "title": "清晰图解HTTPS原理，助我理解okhttp！",
        "type": 0,
        "userId": -1,
        "visible": 1,
        "zan": 0
      },
      {
        "apkLink": "",
        "audit": 1,
        "author": "鸿洋",
        "canEdit": false,
        "chapterId": 408,
        "chapterName": "鸿洋",
        "collect": false,
        "courseId": 13,
        "desc": "",
        "descMd": "",
        "envelopePic": "",
        "fresh": false,
        "host": "",
        "id": 17878,
        "link": "https://mp.weixin.qq.com/s/_QEloSDCC9KbH4Cj1rU8OQ",
        "niceDate": "2天前",
        "niceShareDate": "1天前",
        "origin": "",
        "prefix": "",
        "projectLink": "",
        "publishTime": 1617724800000,
        "realSuperChapterId": 407,
        "selfVisible": 0,
        "shareDate": 1617807865000,
        "shareUser": "",
        "superChapterId": 408,
        "superChapterName": "公众号",
        "tags": [
          {
            "name": "公众号",
            "url": "/wxarticle/list/408/1"
          }
        ],
        "title": "androidx 来袭，Fragment 可见性监听方案，多种 case 完美兼容！",
        "type": 0,
        "userId": -1,
        "visible": 1,
        "zan": 0
      },
      {
        "apkLink": "",
        "audit": 1,
        "author": "鸿洋",
        "canEdit": false,
        "chapterId": 408,
        "chapterName": "鸿洋",
        "collect": false,
        "courseId": 13,
        "desc": "",
        "descMd": "",
        "envelopePic": "",
        "fresh": false,
        "host": "",
        "id": 17863,
        "link": "https://mp.weixin.qq.com/s/IoO_eYA1KP7S3V13WtInkQ",
        "niceDate": "2021-04-06 00:00",
        "niceShareDate": "2天前",
        "origin": "",
        "prefix": "",
        "projectLink": "",
        "publishTime": 1617638400000,
        "realSuperChapterId": 407,
        "selfVisible": 0,
        "shareDate": 1617722634000,
        "shareUser": "",
        "superChapterId": 408,
        "superChapterName": "公众号",
        "tags": [
          {
            "name": "公众号",
            "url": "/wxarticle/list/408/1"
          }
        ],
        "title": "面试官：RecyclerView布局动画原理了解吗？",
        "type": 0,
        "userId": -1,
        "visible": 1,
        "zan": 0
      },
      {
        "apkLink": "",
        "audit": 1,
        "author": "鸿洋",
        "canEdit": false,
        "chapterId": 408,
        "chapterName": "鸿洋",
        "collect": false,
        "courseId": 13,
        "desc": "",
        "descMd": "",
        "envelopePic": "",
        "fresh": false,
        "host": "",
        "id": 17862,
        "link": "https://mp.weixin.qq.com/s/FFLrfqFsVclsh_9e5tyPkQ",
        "niceDate": "2021-04-05 00:00",
        "niceShareDate": "2天前",
        "origin": "",
        "prefix": "",
        "projectLink": "",
        "publishTime": 1617552000000,
        "realSuperChapterId": 407,
        "selfVisible": 0,
        "shareDate": 1617722618000,
        "shareUser": "",
        "superChapterId": 408,
        "superChapterName": "公众号",
        "tags": [
          {
            "name": "公众号",
            "url": "/wxarticle/list/408/1"
          }
        ],
        "title": "Compose实战，快速打造一个&ldquo;电影App&rdquo;",
        "type": 0,
        "userId": -1,
        "visible": 1,
        "zan": 0
      },
      {
        "apkLink": "",
        "audit": 1,
        "author": "鸿洋",
        "canEdit": false,
        "chapterId": 408,
        "chapterName": "鸿洋",
        "collect": false,
        "courseId": 13,
        "desc": "",
        "descMd": "",
        "envelopePic": "",
        "fresh": false,
        "host": "",
        "id": 17861,
        "link": "https://mp.weixin.qq.com/s/63zHksIEEgm3PFNLtxIUrg",
        "niceDate": "2021-04-02 00:00",
        "niceShareDate": "2天前",
        "origin": "",
        "prefix": "",
        "projectLink": "",
        "publishTime": 1617292800000,
        "realSuperChapterId": 407,
        "selfVisible": 0,
        "shareDate": 1617722603000,
        "shareUser": "",
        "superChapterId": 408,
        "superChapterName": "公众号",
        "tags": [
          {
            "name": "公众号",
            "url": "/wxarticle/list/408/1"
          }
        ],
        "title": "Handler二十七问｜你真的了解我吗？",
        "type": 0,
        "userId": -1,
        "visible": 1,
        "zan": 0
      },
      {
        "apkLink": "",
        "audit": 1,
        "author": "鸿洋",
        "canEdit": false,
        "chapterId": 408,
        "chapterName": "鸿洋",
        "collect": false,
        "courseId": 13,
        "desc": "",
        "descMd": "",
        "envelopePic": "",
        "fresh": false,
        "host": "",
        "id": 17826,
        "link": "https://mp.weixin.qq.com/s/zi3K7lXfSodHj6tUTLKxgg",
        "niceDate": "2021-04-01 00:00",
        "niceShareDate": "2021-04-01 22:17",
        "origin": "",
        "prefix": "",
        "projectLink": "",
        "publishTime": 1617206400000,
        "realSuperChapterId": 407,
        "selfVisible": 0,
        "shareDate": 1617286635000,
        "shareUser": "",
        "superChapterId": 408,
        "superChapterName": "公众号",
        "tags": [
          {
            "name": "公众号",
            "url": "/wxarticle/list/408/1"
          }
        ],
        "title": "Android 代码混淆，到底做了什么？",
        "type": 0,
        "userId": -1,
        "visible": 1,
        "zan": 0
      },
      {
        "apkLink": "",
        "audit": 1,
        "author": "鸿洋",
        "canEdit": false,
        "chapterId": 408,
        "chapterName": "鸿洋",
        "collect": false,
        "courseId": 13,
        "desc": "",
        "descMd": "",
        "envelopePic": "",
        "fresh": false,
        "host": "",
        "id": 17803,
        "link": "https://mp.weixin.qq.com/s/vYsVJI1SoT4gaiMGoEkx-Q",
        "niceDate": "2021-03-30 00:00",
        "niceShareDate": "2021-03-30 23:21",
        "origin": "",
        "prefix": "",
        "projectLink": "",
        "publishTime": 1617033600000,
        "realSuperChapterId": 407,
        "selfVisible": 0,
        "shareDate": 1617117680000,
        "shareUser": "",
        "superChapterId": 408,
        "superChapterName": "公众号",
        "tags": [
          {
            "name": "公众号",
            "url": "/wxarticle/list/408/1"
          }
        ],
        "title": "阿里的ARouter，问几个你&ldquo;不会&rdquo;的问题！",
        "type": 0,
        "userId": -1,
        "visible": 1,
        "zan": 0
      },
      {
        "apkLink": "",
        "audit": 1,
        "author": "鸿洋",
        "canEdit": false,
        "chapterId": 408,
        "chapterName": "鸿洋",
        "collect": false,
        "courseId": 13,
        "desc": "",
        "descMd": "",
        "envelopePic": "",
        "fresh": false,
        "host": "",
        "id": 17792,
        "link": "https://mp.weixin.qq.com/s/TL0zjbApXgX1Cu7g4baI_w",
        "niceDate": "2021-03-29 00:00",
        "niceShareDate": "2021-03-29 22:23",
        "origin": "",
        "prefix": "",
        "projectLink": "",
        "publishTime": 1616947200000,
        "realSuperChapterId": 407,
        "selfVisible": 0,
        "shareDate": 1617027791000,
        "shareUser": "",
        "superChapterId": 408,
        "superChapterName": "公众号",
        "tags": [
          {
            "name": "公众号",
            "url": "/wxarticle/list/408/1"
          }
        ],
        "title": "新技又又又又又叒来了？",
        "type": 0,
        "userId": -1,
        "visible": 1,
        "zan": 0
      },
      {
        "apkLink": "",
        "audit": 1,
        "author": "鸿洋",
        "canEdit": false,
        "chapterId": 408,
        "chapterName": "鸿洋",
        "collect": false,
        "courseId": 13,
        "desc": "",
        "descMd": "",
        "envelopePic": "",
        "fresh": false,
        "host": "",
        "id": 17785,
        "link": "https://mp.weixin.qq.com/s/j2rN8Xt-0UWVNqMxL2XPjw",
        "niceDate": "2021-03-26 00:00",
        "niceShareDate": "2021-03-28 21:23",
        "origin": "",
        "prefix": "",
        "projectLink": "",
        "publishTime": 1616688000000,
        "realSuperChapterId": 407,
        "selfVisible": 0,
        "shareDate": 1616937794000,
        "shareUser": "",
        "superChapterId": 408,
        "superChapterName": "公众号",
        "tags": [
          {
            "name": "公众号",
            "url": "/wxarticle/list/408/1"
          }
        ],
        "title": "Android 一个困惑很久的问题：onMeasure() 为什么会执行多次？",
        "type": 0,
        "userId": -1,
        "visible": 1,
        "zan": 0
      },
      {
        "apkLink": "",
        "audit": 1,
        "author": "鸿洋",
        "canEdit": false,
        "chapterId": 408,
        "chapterName": "鸿洋",
        "collect": false,
        "courseId": 13,
        "desc": "",
        "descMd": "",
        "envelopePic": "",
        "fresh": false,
        "host": "",
        "id": 17753,
        "link": "https://mp.weixin.qq.com/s/y2Qx9vwSpJIVItWLgxU1qg",
        "niceDate": "2021-03-25 00:00",
        "niceShareDate": "2021-03-25 22:03",
        "origin": "",
        "prefix": "",
        "projectLink": "",
        "publishTime": 1616601600000,
        "realSuperChapterId": 407,
        "selfVisible": 0,
        "shareDate": 1616681029000,
        "shareUser": "",
        "superChapterId": 408,
        "superChapterName": "公众号",
        "tags": [
          {
            "name": "公众号",
            "url": "/wxarticle/list/408/1"
          }
        ],
        "title": "Android IPC 之 Binder搞不清楚可不行！",
        "type": 0,
        "userId": -1,
        "visible": 1,
        "zan": 0
      },
      {
        "apkLink": "",
        "audit": 1,
        "author": "鸿洋",
        "canEdit": false,
        "chapterId": 408,
        "chapterName": "鸿洋",
        "collect": false,
        "courseId": 13,
        "desc": "",
        "descMd": "",
        "envelopePic": "",
        "fresh": false,
        "host": "",
        "id": 17740,
        "link": "https://mp.weixin.qq.com/s/t1VBFZSOrzfxjxbfELF2Ng",
        "niceDate": "2021-03-24 00:00",
        "niceShareDate": "2021-03-24 23:04",
        "origin": "",
        "prefix": "",
        "projectLink": "",
        "publishTime": 1616515200000,
        "realSuperChapterId": 407,
        "selfVisible": 0,
        "shareDate": 1616598285000,
        "shareUser": "",
        "superChapterId": 408,
        "superChapterName": "公众号",
        "tags": [
          {
            "name": "公众号",
            "url": "/wxarticle/list/408/1"
          }
        ],
        "title": "Android 架构探索，MVVM 原来如此简单！",
        "type": 0,
        "userId": -1,
        "visible": 1,
        "zan": 0
      },
      {
        "apkLink": "",
        "audit": 1,
        "author": "鸿洋",
        "canEdit": false,
        "chapterId": 408,
        "chapterName": "鸿洋",
        "collect": false,
        "courseId": 13,
        "desc": "",
        "descMd": "",
        "envelopePic": "",
        "fresh": false,
        "host": "",
        "id": 17726,
        "link": "https://mp.weixin.qq.com/s/IxsJJOp8FXr7jd3WemUSSQ",
        "niceDate": "2021-03-23 00:00",
        "niceShareDate": "2021-03-23 21:12",
        "origin": "",
        "prefix": "",
        "projectLink": "",
        "publishTime": 1616428800000,
        "realSuperChapterId": 407,
        "selfVisible": 0,
        "shareDate": 1616505178000,
        "shareUser": "",
        "superChapterId": 408,
        "superChapterName": "公众号",
        "tags": [
          {
            "name": "公众号",
            "url": "/wxarticle/list/408/1"
          }
        ],
        "title": "新技术介绍来了，CameraX 一统江湖？",
        "type": 0,
        "userId": -1,
        "visible": 1,
        "zan": 0
      },
      {
        "apkLink": "",
        "audit": 1,
        "author": "鸿洋",
        "canEdit": false,
        "chapterId": 408,
        "chapterName": "鸿洋",
        "collect": false,
        "courseId": 13,
        "desc": "",
        "descMd": "",
        "envelopePic": "",
        "fresh": false,
        "host": "",
        "id": 17712,
        "link": "https://mp.weixin.qq.com/s/XZBbcepZxauQZTeYdUyLOg",
        "niceDate": "2021-03-22 00:00",
        "niceShareDate": "2021-03-22 22:45",
        "origin": "",
        "prefix": "",
        "projectLink": "",
        "publishTime": 1616342400000,
        "realSuperChapterId": 407,
        "selfVisible": 0,
        "shareDate": 1616424313000,
        "shareUser": "",
        "superChapterId": 408,
        "superChapterName": "公众号",
        "tags": [
          {
            "name": "公众号",
            "url": "/wxarticle/list/408/1"
          }
        ],
        "title": "Android 避坑指南：TouchDelegate的这些盲区了解一下？",
        "type": 0,
        "userId": -1,
        "visible": 1,
        "zan": 0
      },
      {
        "apkLink": "",
        "audit": 1,
        "author": "鸿洋",
        "canEdit": false,
        "chapterId": 408,
        "chapterName": "鸿洋",
        "collect": false,
        "courseId": 13,
        "desc": "",
        "descMd": "",
        "envelopePic": "",
        "fresh": false,
        "host": "",
        "id": 17711,
        "link": "https://mp.weixin.qq.com/s/HFIxPSuGovp_R861wQ_BAQ",
        "niceDate": "2021-03-21 00:00",
        "niceShareDate": "2021-03-22 22:44",
        "origin": "",
        "prefix": "",
        "projectLink": "",
        "publishTime": 1616256000000,
        "realSuperChapterId": 407,
        "selfVisible": 0,
        "shareDate": 1616424298000,
        "shareUser": "",
        "superChapterId": 408,
        "superChapterName": "公众号",
        "tags": [
          {
            "name": "公众号",
            "url": "/wxarticle/list/408/1"
          }
        ],
        "title": "Android 12 预览版来了！新增了哪些功能？",
        "type": 0,
        "userId": -1,
        "visible": 1,
        "zan": 0
      },
      {
        "apkLink": "",
        "audit": 1,
        "author": "鸿洋",
        "canEdit": false,
        "chapterId": 408,
        "chapterName": "鸿洋",
        "collect": false,
        "courseId": 13,
        "desc": "",
        "descMd": "",
        "envelopePic": "",
        "fresh": false,
        "host": "",
        "id": 17710,
        "link": "https://mp.weixin.qq.com/s/uoAeuJTqjBvM7zGgeEgdRA",
        "niceDate": "2021-03-20 00:00",
        "niceShareDate": "2021-03-22 22:44",
        "origin": "",
        "prefix": "",
        "projectLink": "",
        "publishTime": 1616169600000,
        "realSuperChapterId": 407,
        "selfVisible": 0,
        "shareDate": 1616424282000,
        "shareUser": "",
        "superChapterId": 408,
        "superChapterName": "公众号",
        "tags": [
          {
            "name": "公众号",
            "url": "/wxarticle/list/408/1"
          }
        ],
        "title": "再谈Android各种Context的前世今生！",
        "type": 0,
        "userId": -1,
        "visible": 1,
        "zan": 0
      },
      {
        "apkLink": "",
        "audit": 1,
        "author": "鸿洋",
        "canEdit": false,
        "chapterId": 408,
        "chapterName": "鸿洋",
        "collect": false,
        "courseId": 13,
        "desc": "",
        "descMd": "",
        "envelopePic": "",
        "fresh": false,
        "host": "",
        "id": 17689,
        "link": "https://mp.weixin.qq.com/s/O4UKMv1MAdAQCU2PzkAl6w",
        "niceDate": "2021-03-19 00:00",
        "niceShareDate": "2021-03-19 23:44",
        "origin": "",
        "prefix": "",
        "projectLink": "",
        "publishTime": 1616083200000,
        "realSuperChapterId": 407,
        "selfVisible": 0,
        "shareDate": 1616168682000,
        "shareUser": "",
        "superChapterId": 408,
        "superChapterName": "公众号",
        "tags": [
          {
            "name": "公众号",
            "url": "/wxarticle/list/408/1"
          }
        ],
        "title": "再谈子线程更新UI的问题！",
        "type": 0,
        "userId": -1,
        "visible": 1,
        "zan": 0
      },
      {
        "apkLink": "",
        "audit": 1,
        "author": "鸿洋",
        "canEdit": false,
        "chapterId": 408,
        "chapterName": "鸿洋",
        "collect": false,
        "courseId": 13,
        "desc": "",
        "descMd": "",
        "envelopePic": "",
        "fresh": false,
        "host": "",
        "id": 17678,
        "link": "https://mp.weixin.qq.com/s/14zhFMbB-Pywtvy3nwzhKw",
        "niceDate": "2021-03-18 00:00",
        "niceShareDate": "2021-03-18 21:28",
        "origin": "",
        "prefix": "",
        "projectLink": "",
        "publishTime": 1615996800000,
        "realSuperChapterId": 407,
        "selfVisible": 0,
        "shareDate": 1616074116000,
        "shareUser": "",
        "superChapterId": 408,
        "superChapterName": "公众号",
        "tags": [
          {
            "name": "公众号",
            "url": "/wxarticle/list/408/1"
          }
        ],
        "title": "小知识又来了！ViewGroup onDraw为什么不调用？",
        "type": 0,
        "userId": -1,
        "visible": 1,
        "zan": 0
      },
      {
        "apkLink": "",
        "audit": 1,
        "author": "鸿洋",
        "canEdit": false,
        "chapterId": 408,
        "chapterName": "鸿洋",
        "collect": false,
        "courseId": 13,
        "desc": "",
        "descMd": "",
        "envelopePic": "",
        "fresh": false,
        "host": "",
        "id": 17669,
        "link": "https://mp.weixin.qq.com/s/_Ve9VvZ-RmliDmx_jujD9w",
        "niceDate": "2021-03-17 00:00",
        "niceShareDate": "2021-03-17 23:14",
        "origin": "",
        "prefix": "",
        "projectLink": "",
        "publishTime": 1615910400000,
        "realSuperChapterId": 407,
        "selfVisible": 0,
        "shareDate": 1615994054000,
        "shareUser": "",
        "superChapterId": 408,
        "superChapterName": "公众号",
        "tags": [
          {
            "name": "公众号",
            "url": "/wxarticle/list/408/1"
          }
        ],
        "title": "一文带你了解 Jetpack Compose UI 框架",
        "type": 0,
        "userId": -1,
        "visible": 1,
        "zan": 0
      },
      {
        "apkLink": "",
        "audit": 1,
        "author": "鸿洋",
        "canEdit": false,
        "chapterId": 408,
        "chapterName": "鸿洋",
        "collect": false,
        "courseId": 13,
        "desc": "",
        "descMd": "",
        "envelopePic": "",
        "fresh": false,
        "host": "",
        "id": 17651,
        "link": "https://mp.weixin.qq.com/s/dyCEnsdUo-AGhqeCzN0E5w",
        "niceDate": "2021-03-16 00:00",
        "niceShareDate": "2021-03-16 22:41",
        "origin": "",
        "prefix": "",
        "projectLink": "",
        "publishTime": 1615824000000,
        "realSuperChapterId": 407,
        "selfVisible": 0,
        "shareDate": 1615905691000,
        "shareUser": "",
        "superChapterId": 408,
        "superChapterName": "公众号",
        "tags": [
          {
            "name": "公众号",
            "url": "/wxarticle/list/408/1"
          }
        ],
        "title": "中级Android研发，面试问什么？",
        "type": 0,
        "userId": -1,
        "visible": 1,
        "zan": 0
      },
      {
        "apkLink": "",
        "audit": 1,
        "author": "鸿洋",
        "canEdit": false,
        "chapterId": 408,
        "chapterName": "鸿洋",
        "collect": false,
        "courseId": 13,
        "desc": "",
        "descMd": "",
        "envelopePic": "",
        "fresh": false,
        "host": "",
        "id": 17635,
        "link": "https://mp.weixin.qq.com/s/gug-32Nwj8JUY28yGmiJ6Q",
        "niceDate": "2021-03-15 00:00",
        "niceShareDate": "2021-03-15 23:01",
        "origin": "",
        "prefix": "",
        "projectLink": "",
        "publishTime": 1615737600000,
        "realSuperChapterId": 407,
        "selfVisible": 0,
        "shareDate": 1615820504000,
        "shareUser": "",
        "superChapterId": 408,
        "superChapterName": "公众号",
        "tags": [
          {
            "name": "公众号",
            "url": "/wxarticle/list/408/1"
          }
        ],
        "title": "深入kotlin的一个细节：当 const 遇到 val",
        "type": 0,
        "userId": -1,
        "visible": 1,
        "zan": 0
      }
    ],
    "offset": 0,
    "over": false,
    "pageCount": 58,
    "size": 20,
    "total": 1157
  },
  "errorCode": 0,
  "errorMsg": ""
}
